{
  "CONFIG": {
      "SENDWITHUS_API_KEY": "live_a691e3dfaf73cad0aef88d62a9def2b8428c7f66",
      "SECRET_KEY": "transgerows69q1fn1hl+y$zw7q0b4dt=^wdbl+-8n$#f3z-&k",
      "CLOUDINARY_URL": "cloudinary://468477539848343:7SFZeZovkEDvreMRSN5u_-4BIow@shubhamdipt",
      "TRANSGERO_CHARGE": 0.1
    }
}
