<?xml version="1.0" encoding="UTF-8" standalone="no"?>
<!-- Created with Inkscape (http://www.inkscape.org/) -->

<svg
   xmlns:dc="http://purl.org/dc/elements/1.1/"
   xmlns:cc="http://creativecommons.org/ns#"
   xmlns:rdf="http://www.w3.org/1999/02/22-rdf-syntax-ns#"
   xmlns:svg="http://www.w3.org/2000/svg"
   xmlns="http://www.w3.org/2000/svg"
   xmlns:xlink="http://www.w3.org/1999/xlink"
   xmlns:sodipodi="http://sodipodi.sourceforge.net/DTD/sodipodi-0.dtd"
   xmlns:inkscape="http://www.inkscape.org/namespaces/inkscape"
   width="3.1681783in"
   height="0.33333328in"
   viewBox="0 0 285.13606 29.999997"
   id="svg4804"
   version="1.1"
   inkscape:version="0.91 r13725"
   sodipodi:docname="company_name.svg">
  <defs
     id="defs4806">
    <linearGradient
       inkscape:collect="always"
       id="linearGradient5809">
      <stop
         style="stop-color:#2b1100;stop-opacity:1"
         offset="0"
         id="stop5811" />
      <stop
         style="stop-color:#c11818;stop-opacity:0.95294118"
         offset="1"
         id="stop5813" />
    </linearGradient>
    <linearGradient
       id="linearGradient5533"
       inkscape:collect="always">
      <stop
         id="stop5543"
         offset="0"
         style="stop-color:#2b1100;stop-opacity:1" />
      <stop
         id="stop5545"
         offset="1"
         style="stop-color:#ff6600;stop-opacity:1" />
    </linearGradient>
    <linearGradient
       inkscape:collect="always"
       xlink:href="#linearGradient5533"
       id="linearGradient5539"
       x1="182.44739"
       y1="361.36737"
       x2="621.70679"
       y2="361.36734"
       gradientUnits="userSpaceOnUse"
       spreadMethod="pad"
       gradientTransform="translate(-26.732674,-17.005476)" />
    <linearGradient
       inkscape:collect="always"
       xlink:href="#linearGradient5809"
       id="linearGradient5589"
       gradientUnits="userSpaceOnUse"
       gradientTransform="translate(-46.534654,-15.025278)"
       spreadMethod="pad"
       x1="182.44739"
       y1="361.36737"
       x2="794.97412"
       y2="359.38715" />
    <linearGradient
       inkscape:collect="always"
       xlink:href="#linearGradient5809"
       id="linearGradient7480"
       gradientUnits="userSpaceOnUse"
       gradientTransform="translate(-46.534654,-15.025278)"
       spreadMethod="pad"
       x1="182.44739"
       y1="361.36737"
       x2="794.97412"
       y2="359.38715" />
    <linearGradient
       inkscape:collect="always"
       xlink:href="#linearGradient5809"
       id="linearGradient4739"
       gradientUnits="userSpaceOnUse"
       gradientTransform="matrix(1.2862527,0,0,1.2862527,-98.060131,-125.138)"
       spreadMethod="pad"
       x1="182.44739"
       y1="361.36737"
       x2="794.97412"
       y2="359.38715" />
  </defs>
  <sodipodi:namedview
     id="base"
     pagecolor="#ffffff"
     bordercolor="#666666"
     borderopacity="1.0"
     inkscape:pageopacity="0.0"
     inkscape:pageshadow="2"
     inkscape:zoom="1.01"
     inkscape:cx="3.9981516"
     inkscape:cy="54.518252"
     inkscape:document-units="px"
     inkscape:current-layer="g4718"
     showgrid="false"
     fit-margin-top="0"
     fit-margin-left="0"
     fit-margin-right="0"
     fit-margin-bottom="0"
     inkscape:window-width="1360"
     inkscape:window-height="724"
     inkscape:window-x="1769"
     inkscape:window-y="40"
     inkscape:window-maximized="0"
     units="in" />
  <metadata
     id="metadata4809">
    <rdf:RDF>
      <cc:Work
         rdf:about="">
        <dc:format>image/svg+xml</dc:format>
        <dc:type
           rdf:resource="http://purl.org/dc/dcmitype/StillImage" />
        <dc:title />
      </cc:Work>
    </rdf:RDF>
  </metadata>
  <g
     inkscape:label="Layer 1"
     inkscape:groupmode="layer"
     id="layer1"
     transform="translate(-48.248778,-358.86074)">
    <g
       id="g5568">
      <g
         id="g6911">
        <g
           id="g4718"
           transform="matrix(0.33333332,0,0,0.33333332,3.7603361,265.64594)">
          <text
             sodipodi:linespacing="125%"
             id="text5521"
             y="368.51392"
             x="133.46533"
             style="font-style:normal;font-weight:normal;font-size:51.45010757px;line-height:125%;font-family:sans-serif;letter-spacing:0px;word-spacing:0px;fill:url(#linearGradient4739);fill-opacity:1;stroke:none;stroke-width:1px;stroke-linecap:butt;stroke-linejoin:miter;stroke-opacity:1"
             xml:space="preserve"><tspan
               style="font-style:normal;font-variant:normal;font-weight:600;font-stretch:normal;font-size:128.6252594px;font-family:'Gill Sans';-inkscape-font-specification:'Gill Sans Semi-Bold';fill:url(#linearGradient4739);fill-opacity:1"
               y="368.51392"
               x="133.46533"
               id="tspan5523"
               sodipodi:role="line"> TRANSGERO  </tspan></text>
        </g>
      </g>
    </g>
  </g>
</svg>
